[
  {
    "sectionTitle":"Product / enhancement:",
    "questions":[
      {"questionTitle":"Product / enhancement:",
        "type":"openEnd",
        "placeholder": "Write between 0-2000 characters",
        "maxLength":2000,
        "minLength":0
      }
    ]
  },
  {
    "sectionTitle":"Additions or change request",
    "questions":[
      {"questionTitle":"Please provide a brief description of the business reasons why this new feature/update/product is needed? Summarize key milestones for the development. Communicate any major risks and key success factors up front.",
        "type":"openEnd",
        "placeholder": "Write between 1-2000 characters",
        "maxLength":2000,
        "minLength":1
      },
      {"questionTitle":"Describe the key market segments, potential market size, expected ROI, the users/buyers and examples of how it will be used.",
        "type":"openEnd",
        "placeholder": "Write between 1-2000 characters",
        "maxLength":2000,
        "minLength":1
      },
      {"questionTitle":"Describe the competitive landscape, who has this already, and what is the competitors’ experience like?",
        "type":"openEnd",
        "placeholder": "Write between 1-2000 characters",
        "maxLength":2000,
        "minLength":1
      },
      {"questionTitle":"If applicable, what pricing changes are necessary and who needs to be notified internally/externally?",
        "type":"openEnd",
        "placeholder": "Write between 0-2000 characters",
        "maxLength":2000,
        "minLength":0
      },
      {"questionTitle":"Identify which initiative this project is related to: Audience & Targeting, Agile Insights, Brand Engagement.",
        "type":"openEnd",
        "placeholder": "Write between 0-2000 characters",
        "maxLength":2000,
        "minLength":0
      }
    ]
  },
  {
  "sectionTitle":"DESCRIPTION",
  "questions":[
    {"questionTitle":"What is it and how should it function/work? Identify the top requirements that will be implemented as features. Describe user interface flow changes needed and details if applicable. Identify if this is a change, addition, net new",
      "type":"openEnd",
      "placeholder": "Write between 1-2000 characters",
      "maxLength":2000,
      "minLength":1
    }

  ]
},

  {
    "sectionTitle":"MARKETING PLANS, TRACKING & REPORTS",
    "questions":[
      {"questionTitle":"Please describe the vision for this to enter the marketplace.What will need to be communicated internally and externally, and is a GTM plan needed? For reporting and tracking, what will need to be tracked? What to add to product dashboards? How often will a report be generated and distributed, and to whom?External Communications Creative Brief (link) - Fill out if neededInternal Communications Creative Brief (link) - Fill out if needed",
        "type":"openEnd",
        "placeholder": "Write between 1-2000 characters",
        "maxLength":2000,
        "minLength":1
      },
      {"questionTitle":"External Communications Creative Brief (link) - Fill out if needed",
        "type":"openEnd",
        "placeholder": "Write between 1-2000 characters",
        "maxLength":2000,
        "minLength":1
      },
      {"questionTitle":"Internal Communications Creative Brief (link) - Fill out if needed",
        "type":"openEnd",
        "placeholder": "Write between 1-2000 characters",
        "maxLength":2000,
        "minLength":1
      }

    ]
  }

]